Lab 5: Machine Learning in Hydrology – csu-523c
…
camels_vars |>
  select(where(is.numeric)) |>
  cor(use = "pairwise.complete.obs") |>
  as_tibble(rownames = "feature1") |>
  pivot_longer(-feature1, names_to = "feature2", values_to = "correlation") |>
  filter(feature1 < feature2) |>         
  mutate(abs_cor = abs(correlation)) |>
  arrange(desc(abs_cor))

# A tibble: 378 × 4
   feature1       feature2      correlation abs_cor
   <chr>          <chr>               <dbl>   <dbl>
 1 q95            runoff_ratio        0.893   0.893
 2 high_prec_freq low_prec_freq       0.871   0.871
 3 logQmean       runoff_ratio        0.863   0.863
 4 baseflow_index low_q_freq         -0.862   0.862
 5 p_mean         q95                 0.845   0.845
 6 elev_mean      frac_snow           0.837   0.837
 7 high_q_freq    low_q_freq          0.811   0.811
 8 logQmean       p_mean              0.808   0.808
 9 aridity        logQmean           -0.791   0.791
10 logQmean       low_prec_freq      -0.770   0.770
# ℹ 368 more rows
…
